{
  "info" : {
    "version" : 1,
    "author" : "xcode"
  },
  "colors" : [
    {
      "idiom" : "universal",
      "color" : {
        "color-space" : "srgb",
        "components" : {
          "red" : "0.412",
          "alpha" : "1.000",
          "blue" : "0.788",
          "green" : "0.529"
        }
      }
    },
    {
      "idiom" : "universal",
      "appearances" : [
        {
          "appearance" : "luminosity",
          "value" : "dark"
        }
      ],
      "color" : {
        "color-space" : "display-p3",
        "components" : {
          "red" : "0.573",
          "alpha" : "1.000",
          "blue" : "1.000",
          "green" : "0.777"
        }
      }
    }
  ]
}